{
    "index": {
        "download_fdroid": "Download F-Droid", 
        "gpg_signature": "PGP Handtekening", 
        "introduction": "F-Droid is een installeerbare catalogus van FOSS (Free and Open Source Software) applicaties voor het Android-platform. De client maakt het gemakkelijk om door te bladeren, te installeren en bij te houden van updates op uw apparaat.", 
        "screenshot": "Screenshot van de F-Droid Android app", 
        "title": "Wat is F-Droid?"
    }, 
    "navigation": {
        "about": "Over", 
        "browse": "Verken", 
        "contribute": "Bijdragen", 
        "documentation": "Documenten", 
        "forum": "Forum", 
        "issues": "Problemen", 
        "news": "Nieuws", 
        "repomaker": "Repomaker", 
        "tutorials": "Handleidingen"
    }, 
    "package": {
        "author": "Auteur", 
        "build_metadata": "Build-metadata", 
        "changelog": "Veranderingen", 
        "donate": "Doneer", 
        "download": "Download [file_extension]", 
        "flattr": "Flattr", 
        "gpg_signature": "PGP Handtekening", 
        "issue_tracker": "Problemen volger", 
        "liberapay": "Liberapay", 
        "license": "Licentie", 
        "minimum_android_version": "Deze versie vereist Android [android_version] of nieuwer.", 
        "new_in_version": "Nieuw in versie [latest_version]", 
        "packages": "Pakket", 
        "permissions": "Toestemming", 
        "signed_by_developer": "Het is gebouwd en getekend door de oorspronkelijke ontwikkelaar.", 
        "signed_by_fdroid": "Het is gebouwd en ondertekend door F-Droid, en is gegarandeerd om het zelfde te zijn als <a href=\"[source_code_url]\"> deze tarball </a>.", 
        "source_code": "Broncode", 
        "suggest_downloading_via_fdroid": "Hoewel de APK bestanden hieronder beschikbaar zijn zodat u de keuze heeft, moet u zich ervan bewust zijn dat u bij deze installatie geen updatemeldingen ontvangt en het een minder veilige manier is om te downloaden. Wij adviseren u de F-Droid client te installeren en te gebruiken.", 
        "technical_info": "Technische info", 
        "version_info": "<b>Versie [package_version]</b> ([package_version_code]) - Toegevoegd op [package_added_date]", 
        "website": "Website"
    }, 
    "sidebars": {
        "donate": {
            "bank_transfer_name": "Naam", 
            "bitcoin_alt": "Doneer via Bitcoin", 
            "flattr_alt": "Doneer via Flattr", 
            "heading": "Doneer", 
            "liberapay_alt": "Doneer via Liberapay", 
            "paypal_alt": "Doneer via PayPal", 
            "powered_by_donations": "F-Droid is mogelijk gemaakt door jullie donaties!", 
            "via_bank_transfer": "Bank overschrijving"
        }, 
        "last_updated": {
            "heading": "Nieuwste Update"
        }, 
        "latest_packages": {
            "heading": "Nieuwste Apps"
        }, 
        "news": {
            "heading": "Nieuws"
        }, 
        "search": {
            "heading": "Zoek Apps", 
            "noscript": "Vereist JavaScript om ingeschakeld te zijn"
        }
    }
}